Exploring Factors and Predicting Life Expectancy
…
# Fit model to the training data
fit_linear_reg <- wflow |>
  fit(data = train_data)

Once the model is fitted, it is possible to extract the elements of the model.

fit_linear_reg |>
  workflows::extract_fit_parsnip() |>
  tidy()

# A tibble: 190 x 5
   term                                         estimate std.e~1 stati~2 p.value
   <chr>                                           <dbl>   <dbl>   <dbl>   <dbl>
 1 (Intercept)                                   4.45e+1 1.74e+1   2.55  1.07e-2
 2 year                                          8.33e-3 5.44e-3   1.53  1.26e-1
 3 access_to_clean_fuels_and_technologies_for_~  7.26e-3 1.69e-3   4.29  1.81e-5
 4 access_to_clean_fuels_and_technologies_for_~  1.74e-3 2.09e-3   0.831 4.06e-1
 5 access_to_electricity_urban_percent_of_urba~  8.99e-3 2.79e-3   3.23  1.27e-3
 6 adolescent_fertility_rate_births_per_1_000_~  1.14e-3 1.44e-3   0.787 4.31e-1
 7 agricultural_irrigated_land_percent_of_tota~ -9.28e-3 2.61e-3  -3.55  3.86e-4
 8 agricultural_land_percent_of_land_area       -6.42e-3 1.73e-3  -3.72  2.05e-4
 9 agricultural_land_sq_km                       5.51e-8 9.02e-8   0.611 5.42e-1
10 agricultural_machinery_tractors               3.38e-7 9.41e-8   3.59  3.33e-4
# ... with 180 more rows, and abbreviated variable names 1: std.error,
#   2: statistic
…
